{
  "database": {
    "rules": "database.rules.json"
  },
  "hosting": {
    "public": "public",
    "ignore": [
      "firebase.json",
      "**/.*",
      "**/node_modules/**"
    ]
  },
  "storage": {
    "rules": "storage.rules"
  },

  "emulators": {
    "database": {
      "host": "localhost",
      "port": "9001"
    }
  }

}


